RNAseAlert assay 09-2: Cas13 purification
…
table(is.na(df))

## 
## FALSE 
## 23040

Plots

All data

## # A tibble: 32 x 3
## # Groups:   SampleNo [8]
##    SampleNo RepNo  mean
##    <fct>    <chr> <dbl>
##  1 1        1     0.922
##  2 1        2     8.89 
##  3 1        3     8.64 
##  4 1        4     8.43 
##  5 2        1     1.37 
##  6 2        2     9.18 
##  7 2        3     8.86 
##  8 2        4     8.88 
##  9 3        1     0.827
## 10 3        2     5.31 
## # ... with 22 more rows
…
