RNAseAlert assay 11-2: ‘correct’ Cas13 purification
…
## Use summary statistics (mean) to find and remove obvious  outliers 
#' means of all replicates of sample 3
dfstat <- df %>% filter(SampleNo==1|SampleNo==2|SampleNo==3|SampleNo==4|SampleNo==5|SampleNo==6|SampleNo==7|SampleNo==8) %>% group_by(SampleNo,RepNo) %>% summarise(mean=mean(RFU))
dfstat

## # A tibble: 24 x 3
## # Groups:   SampleNo [8]
##    SampleNo RepNo  mean
##    <fct>    <chr> <dbl>
##  1 1        1     2.87 
##  2 1        2     2.21 
##  3 1        3     1.93 
##  4 2        1     0.374
##  5 2        2     0.354
##  6 2        3     0.384
##  7 3        1     0.350
##  8 3        2     0.341
##  9 3        3     0.364
## 10 4        1     0.355
## # ... with 14 more rows
…
