RNAseAlert assay 15: Josie#4 in 384-well plate
…
When we take replicates individualy

colnames(df)

## [1] "Reading"     "MeasTimeSec" "Sample"      "RFU"         "SampleNo"   
## [6] "RepNo"       "MeasTimeMin"

lin <- df %>% group_by(SampleNo, RepNo) %>% do(lm(.$RFU ~ .$MeasTimeMin,data=.) %>% coef() %>% as_tibble())
library("tidyr")

lin$RepNo <- as.numeric(factor(lin$RepNo))
lin

## # A tibble: 48 x 3
## # Groups:   SampleNo, RepNo [24]
##    SampleNo RepNo    value
##    <fct>    <dbl>    <dbl>
##  1 1            1 -0.343  
##  2 1            1  0.362  
##  3 1            2 52.7    
##  4 1            2  0.0409 
##  5 1            3 32.7    
##  6 1            3  0.0568 
##  7 1            4 40.7    
##  8 1            4  0.0396 
##  9 2            1  0.511  
## 10 2            1  0.00215
## # ... with 38 more rows

lin$lin_coef <- rep(c("a","b"),times=length(lin$RepNo)/2)
lin

## # A tibble: 48 x 4
## # Groups:   SampleNo, RepNo [24]
##    SampleNo RepNo    value lin_coef
##    <fct>    <dbl>    <dbl> <chr>   
##  1 1            1 -0.343   a       
##  2 1            1  0.362   b       
##  3 1            2 52.7     a       
##  4 1            2  0.0409  b       
##  5 1            3 32.7     a       
##  6 1            3  0.0568  b       
##  7 1            4 40.7     a       
##  8 1            4  0.0396  b       
##  9 2            1  0.511   a       
## 10 2            1  0.00215 b       
## # ... with 38 more rows

lin_wide <- lin %>% pivot_wider(., names_from=lin_coef, values_from=value) 
lin_wide

## # A tibble: 24 x 4
## # Groups:   SampleNo, RepNo [24]
##    SampleNo RepNo        a       b
##    <fct>    <dbl>    <dbl>   <dbl>
##  1 1            1 -0.343   0.362  
##  2 1            2 52.7     0.0409 
##  3 1            3 32.7     0.0568 
##  4 1            4 40.7     0.0396 
##  5 2            1  0.511   0.00215
##  6 2            2  0.317   0.00449
##  7 2            3 -0.00785 0.00773
##  8 2            4  0.112   0.00705
##  9 3            1 -0.158   0.0101 
## 10 3            2  0.119   0.0112 
## # ... with 14 more rows
…
